{
    "name": "roaring",
    "version": "4.2.1",
    "port-version": 0,
    "description": "A better compressed bitset in C (and C++)",
    "homepage": "https://github.com/RoaringBitmap/CRoaring",
    "license": "Apache-2.0 OR MIT",
    "dependencies": [
      {
        "name": "vcpkg-cmake",
        "host": true
      },
      {
        "name": "vcpkg-cmake-config",
        "host": true
      }
    ]    
  }