{
  "name": "units",
  "version-semver": "0.6.0",
  "port-version": 2,
  "description": "Units Library from LLNL",
  "dependencies": [
    {
      "name": "vcpkg-cmake",
      "host": true
    },
    {
      "name": "vcpkg-cmake-config",
      "host": true
    }
  ]
}